{
  "page": 1,
  "total_results": 6669,
  "total_pages": 334,
  "results": [
    {
      "popularity": 1.4,
      "vote_count": 1,
      "video": false,
      "poster_path": "\/cjuctukg2wp79MMAVLlG6LImLw9.jpg",
      "id": 750255,
      "adult": false,
      "backdrop_path": "\/gBPAB670WCOgRZNMYL9J87S4fzR.jpg",
      "original_language": "en",
      "original_title": "Goodbye, Farewell and Amen",
      "genre_ids": [
        35,
        18,
        10752,
        10770
      ],
      "title": "Goodbye, Farewell and Amen",
      "vote_average": 10,
      "overview": "This feature-length film is the last episode of the long-running television series, which follows an army surgical team during the Korean War. After years of serving together, the close-knit unit is about to be disbanded. Capt. \"Hawkeye\" Pierce (Alan Alda) is recovering from a nervous breakdown, while his friends, like easygoing Capt. B.J. Hunnicut (Mike Farrell) and uptight Maj. Charles Winchester (David Ogden Stiers), deal with the impending change in their own ways.",
      "release_date": "1983-02-28"
    },
    {
      "popularity": 0.6,
      "vote_count": 1,
      "video": false,
      "poster_path": "\/wKWIL8iQVDK79MGxhvMjvpYGAsY.jpg",
      "id": 719640,
      "adult": false,
      "backdrop_path": "\/zPOnXewenPxFaWqZc82uzzDKvfK.jpg",
      "original_language": "pt",
      "original_title": "Sedição de Juazeiro",
      "genre_ids": [
        18,
        36,
        10752
      ],
      "title": "Sedição de Juazeiro",
      "vote_average": 10,
      "overview": "",
      "release_date": "2012-08-22"
    },
    {
      "popularity": 0.628,
      "vote_count": 1,
      "video": false,
      "poster_path": "\/2yyifKRi2ehmDIYwlWuvqisk8F8.jpg",
      "id": 719271,
      "adult": false,
      "backdrop_path": null,
      "original_language": "fa",
      "original_title": "مزار شریف",
      "genre_ids": [
        80,
        99,
        36,
        10752
      ],
      "title": "Mazar Sharif",
      "vote_average": 10,
      "overview": "An Iranian diplomat who miraculously survived Taliban's raid on the Iranian consulate in Mazar E Sharif (Afghanistan) narrates his 19 days of hide and escape to reach Iran's borders meanwhile on the other side, the Iranian troops are preparing for retaliation.",
      "release_date": "2015-09-09"
    },
    {
      "popularity": 0.636,
      "id": 716447,
      "video": false,
      "vote_count": 1,
      "vote_average": 10,
      "title": "Dolu",
      "release_date": "2012-08-02",
      "original_language": "az",
      "original_title": "Dolu",
      "genre_ids": [
        10752
      ],
      "backdrop_path": null,
      "adult": false,
      "overview": "The film based on Agil Abbas's novel about Nagorno-Karabakh War. The film tells about the heroism of the sons of Azerbaijan, who fought for the Motherland to the last drop of blood in spite of everything in the Karabakh war.",
      "poster_path": "\/y7ls1SDzdYrdkPNL9DnKG0vJ8qQ.jpg"
    },
    {
      "popularity": 0.6,
      "vote_count": 1,
      "video": false,
      "poster_path": "\/gi7ylgmKqHMKdOsQjquF9tezKBZ.jpg",
      "id": 713675,
      "adult": false,
      "backdrop_path": "\/nBqrhaX4LYBsUV8TUdoBW11nk8.jpg",
      "original_language": "pl",
      "original_title": "bart sra",
      "genre_ids": [
        16,
        35,
        10752
      ],
      "title": "bart sra",
      "vote_average": 10,
      "overview": "A deep dive into an insane person's head - the maker of \"bart sra\".",
      "release_date": "2020-06-08"
    },
    {
      "popularity": 0.668,
      "id": 703523,
      "video": false,
      "vote_count": 2,
      "vote_average": 10,
      "title": "12 balles dans la peau pour Pierre Laval",
      "release_date": "2009-10-27",
      "original_language": "fr",
      "original_title": "12 balles dans la peau pour Pierre Laval",
      "genre_ids": [
        99,
        36,
        10752
      ],
      "backdrop_path": null,
      "adult": false,
      "overview": "",
      "poster_path": null
    },
    {
      "popularity": 0.6,
      "vote_count": 1,
      "video": false,
      "poster_path": "\/q8gth8lVHoqix8TMUeG5siUZTgW.jpg",
      "id": 702314,
      "adult": false,
      "backdrop_path": "\/p9rEBcux6tFbIbJGmnNHTtVLISw.jpg",
      "original_language": "en",
      "original_title": "Miss Saigon Manila",
      "genre_ids": [
        18,
        10402,
        10752
      ],
      "title": "Miss Saigon Manila",
      "vote_average": 10,
      "overview": "This performance of Boublil and Schönberg's award-winning musical Miss Saigon — staged in Manila at the Cultural Center of the Philippines in 2000 — tells the epic and tragic tale of a young Vietnamese bar girl, Kim, who falls in love with Chris, an American GI, as their lives are torn apart by the fall of Saigon.",
      "release_date": "2000-01-01"
    },
    {
      "popularity": 0.6,
      "vote_count": 1,
      "video": false,
      "poster_path": "\/vaMybAZ92uCjY0osqd3SvO3t5Hw.jpg",
      "id": 693998,
      "adult": false,
      "backdrop_path": null,
      "original_language": "en",
      "original_title": "Operation Courthouse Blitz",
      "genre_ids": [
        28,
        18,
        10752
      ],
      "title": "Operation Courthouse Blitz",
      "vote_average": 10,
      "overview": "A group of resistance fighters advance on the dictators courthouse in this all out non-stop action short film.",
      "release_date": "2015-08-27"
    },
    {
      "popularity": 1.508,
      "vote_count": 1,
      "video": false,
      "poster_path": "\/wCRIqjw7Wcij33IodvxCUTkOAD1.jpg",
      "id": 669417,
      "adult": false,
      "backdrop_path": null,
      "original_language": "fa",
      "original_title": "درخت گردو",
      "genre_ids": [
        80,
        99,
        18,
        36,
        10752
      ],
      "title": "Walnut Tree",
      "vote_average": 10,
      "overview": "Qader, a bricklayer from Sardasht in western Iran whose wife is pregnant with her 4th child, suddenly found himself amid a war crime perpetrated by the Saddam regime. On June 28th, 1987 Iraqi air fighters dropped mustard gas bombs on the city...",
      "release_date": "2020-02-01"
    },
    {
      "popularity": 0.6,
      "vote_count": 1,
      "video": false,
      "poster_path": "\/knfNwkFLnjR039AvmggEM8Ho9PP.jpg",
      "id": 663397,
      "adult": false,
      "backdrop_path": null,
      "original_language": "en",
      "original_title": "Gone for the Moment",
      "genre_ids": [
        18,
        10749,
        10752
      ],
      "title": "Gone for the Moment",
      "vote_average": 10,
      "overview": "Gone for the Moment (2019) is a short war film directed and edited by Josiah Dunjey. The film stars Peter Sullivan as Charles Seymour among other notable cast members such as Lachlan Macritchie (Private Bridges) and Carla da Silva (Lily Blackwood). Produced and written by Peter Sullivan, the film follows Charles Seymour (Peter Sullivan) throughout his Italian campaign as an Australian in WW2. Charles feels it is necessary for him to go and fight in the war although his wife Lily Blackwood (Carla da Silva) thinks otherwise.",
      "release_date": "2019-10-16"
    },
    {
      "popularity": 0.716,
      "vote_count": 2,
      "video": false,
      "poster_path": "\/nWC1M5DUKZjsFH5StXkUkcrPC46.jpg",
      "id": 657230,
      "adult": false,
      "backdrop_path": null,
      "original_language": "en",
      "original_title": "Love and War",
      "genre_ids": [
        28,
        35,
        53,
        10752
      ],
      "title": "Love and War",
      "vote_average": 10,
      "overview": "Marlin (Joe Wilcox) and his slightly crazy but loving wife Elvira (Lauren Campbell) are having money troubles in the 1940’s. Marlin seems to have caught his lucky break when a powerful person in the war is interested in him making a propaganda movie for him. Unfortunately the couple may have bitten off more than they could chew.",
      "release_date": "2019-02-22"
    },
    {
      "popularity": 1.052,
      "id": 635838,
      "video": false,
      "vote_count": 1,
      "vote_average": 10,
      "title": "In This Corner (and Other Corners) of the World",
      "release_date": "2019-12-20",
      "original_language": "ja",
      "original_title": "この世界の（さらにいくつもの）片隅に",
      "genre_ids": [
        10752,
        18,
        16
      ],
      "backdrop_path": "\/wVmInB46dPNvDCOrHbgm2FE4X08.jpg",
      "adult": false,
      "overview": "The film portrays the lives of the people around Suzu, which brings her hidden feelings to the surface.",
      "poster_path": "\/HglySn3GIrw5saDRgXMFPfVWo4.jpg"
    },
    {
      "popularity": 0.874,
      "vote_count": 1,
      "video": false,
      "poster_path": null,
      "id": 626764,
      "adult": false,
      "backdrop_path": null,
      "original_language": "ur",
      "original_title": "Phool Aur Kantay",
      "genre_ids": [
        28,
        10752
      ],
      "title": "Phool Aur Kantay",
      "vote_average": 10,
      "overview": "",
      "release_date": "2010-10-22"
    },
    {
      "popularity": 0.6,
      "id": 621915,
      "video": false,
      "vote_count": 1,
      "vote_average": 10,
      "title": "Revenge of the Worthless",
      "release_date": "2016-07-22",
      "original_language": "ur",
      "original_title": "Revenge of the Worthless",
      "genre_ids": [
        28,
        10752
      ],
      "backdrop_path": "\/5btdwbNwsy76zr0g9voOwQPKASl.jpg",
      "adult": false,
      "overview": "A film depicting the brutally disfigured cultural narrative of a land with the most enviable cultural heritage highlighting the heroic struggle of a few unsung heroes during 2009 Swat Insurgency.",
      "poster_path": "\/wXtQtgpfWYJWagIdrrpgXdKpaFA.jpg"
    },
    {
      "popularity": 3.031,
      "vote_count": 1,
      "video": false,
      "poster_path": "\/yGr0s6i9GSgUEd5C1gyaePibZ5W.jpg",
      "id": 605389,
      "adult": false,
      "backdrop_path": "\/yQkks56b6jqSRNF9REIuO3bB5oX.jpg",
      "original_language": "ja",
      "original_title": "アルキメデスの大戦",
      "genre_ids": [
        28,
        18,
        9648,
        10752
      ],
      "title": "The Great War of Archimedes",
      "vote_average": 10,
      "overview": "It is the early 1930s and the command of the Japanese Imperial Navy determines to construct the world's biggest and most formidable battleship, Yamato. One of the admirals, Yamamoto Isoroku, disagrees. He recruits the upstart and mathematics' expert Tadashi Kai who discovers there are discrepancies between the official cost estimates and the actual figures. They soon find out that they have stumbled upon a conspiracy.",
      "release_date": "2019-07-26"
    },
    {
      "popularity": 1.753,
      "vote_count": 1,
      "video": false,
      "poster_path": "\/9sQVnNsZZroaJe9XSNcbOjWGf0h.jpg",
      "id": 604176,
      "adult": false,
      "backdrop_path": null,
      "original_language": "en",
      "original_title": "I'll Find You",
      "genre_ids": [
        18,
        10402,
        10749,
        10752
      ],
      "title": "I'll Find You",
      "vote_average": 10,
      "overview": "Inspired by stories of Polish musicians from the 1930-ies\/40-ies \"Music, War and Love\" is an uncommon love story; its romantic heartbeat is sustained by the love of music that draws its characters together. Two young lovers, ROBERT, a catholic opera singer and RACHEL, a Jewish violin virtuoso, dream of one day performing together at legendary Carnegie Hall. When they're torn apart by the German invasion of Poland, Robert vows to find Rachel, no matter what the war may bring. His search leads him on a life-threatening journey through the heart of Nazi Germany, to a reckoning that Rachel may be lost to him forever.",
      "release_date": "2019-07-05"
    },
    {
      "popularity": 0.698,
      "id": 598402,
      "video": false,
      "vote_count": 1,
      "vote_average": 10,
      "title": "Agincourt",
      "release_date": "2017-09-14",
      "original_language": "en",
      "original_title": "Agincourt",
      "genre_ids": [
        10752,
        18,
        28,
        36
      ],
      "backdrop_path": "\/A3nIzCFXaJJKpZG62gfrWin9TA4.jpg",
      "adult": false,
      "overview": "This ten-minute short follows two Jewish-American soldiers stationed in Northern France in 1944. The film takes its name from the small French farming town of Agincourt, which in turn takes its name from the Battle of Agincourt, which was fought there in 1415 and features prominently in Shakespeare's \"King Henry the Fifth.\" The film plays out in a series of vignettes, much of the narration drawn directly from Shakespeare's play.",
      "poster_path": "\/p4QyWhu4dv6jn7vwuKeqB0CSYUa.jpg"
    },
    {
      "popularity": 0.6,
      "id": 597408,
      "video": false,
      "vote_count": 2,
      "vote_average": 10,
      "title": "Enemies",
      "release_date": "2018-04-20",
      "original_language": "bg",
      "original_title": "Врагове",
      "genre_ids": [
        18,
        10752
      ],
      "backdrop_path": null,
      "adult": false,
      "overview": "A group of Bulgarian soldiers go on a mission during the Balkan War.",
      "poster_path": "\/xNuTTRFGMXWHQVzM21vlYO5EV6j.jpg"
    },
    {
      "popularity": 0.941,
      "vote_count": 1,
      "video": false,
      "poster_path": "\/aQHaHLfjLKK0eGmuoSJJUij1zyp.jpg",
      "id": 596197,
      "adult": false,
      "backdrop_path": "\/5oP4IWeoAqqTbkqrnoiBH00ZZOt.jpg",
      "original_language": "el",
      "original_title": "Υποβρύχιον Παπανικολής",
      "genre_ids": [
        12,
        18,
        36,
        10752
      ],
      "title": "Υποβρύχιον Παπανικολής",
      "vote_average": 10,
      "overview": "",
      "release_date": "1971-09-24"
    },
    {
      "popularity": 0.6,
      "vote_count": 1,
      "video": false,
      "poster_path": "\/oIJmf9PqBy7MwEpbEXdNramC62a.jpg",
      "id": 587894,
      "adult": false,
      "backdrop_path": "\/zTEuAno95Ubr9jfOprD21gs5QzF.jpg",
      "original_language": "et",
      "original_title": "Sinimäed",
      "genre_ids": [
        99,
        10752
      ],
      "title": "The Blue Hills",
      "vote_average": 10,
      "overview": "A documentary on the volunteer Estonian Army's defense against the Soviet Army in 1944 with an emphasis on its last stand in the region known as the Blue Hills of Estonia.",
      "release_date": "2006-05-08"
    }
  ]
}