{
  "page": 10,
  "total_results": 193,
  "total_pages": 10,
  "results": [
    {
      "popularity": 0.6,
      "vote_count": 0,
      "video": false,
      "poster_path": "\/sQfQf81l2LUQxPphhi5FpvQ6cUU.jpg",
      "id": 646179,
      "adult": false,
      "backdrop_path": "\/hghqHLI5tD2kJaHJxarmzQjLRyj.jpg",
      "original_language": "en",
      "original_title": "Three Mirrors Creature's Flashes of Flesh",
      "genre_ids": [
        18,
        27,
        878
      ],
      "title": "Three Mirrors Creature's Flashes of Flesh",
      "vote_average": 0,
      "overview": "Blindly dances Dangel Fox on her death-routine as a ruthless top broker manager. But Creature groans and chokes, the abyss is just one step away. And here it comes the raising collapse. And the unearthly awakening. A repossession. The voyage to light and spirit starts over. Ecstatic, sensorial, absolute. Flashing. Straight to an extreme and piercing choice of eternity.",
      "release_date": ""
    },
    {
      "popularity": 0.6,
      "id": 341885,
      "video": true,
      "vote_count": 0,
      "vote_average": 0,
      "title": "Flashback: The Golden Age of Motor Racing",
      "release_date": "2012-03-01",
      "original_language": "en",
      "original_title": "Flashback: The Golden Age of Motor Racing",
      "genre_ids": [],
      "backdrop_path": null,
      "adult": false,
      "overview": "Travel back in time to Motor Racing's golden years and relive its greatest moments on this exclusive DVD program.",
      "poster_path": null
    },
    {
      "popularity": 1.4,
      "id": 275091,
      "video": false,
      "vote_count": 3,
      "vote_average": 5.3,
      "title": "New York After Midnight",
      "release_date": "1978-01-01",
      "original_language": "en",
      "original_title": "New York After Midnight",
      "genre_ids": [
        18,
        53
      ],
      "backdrop_path": null,
      "adult": false,
      "overview": "Monique is a 35 year old French woman, living in New York. The daughter of a French diplomat who has remarried, Monique has no financial worries, and holds a good job with a publishing firm. She finds relationships difficult, and frequently suffers acute depression. Her nights are filled with strange dreams, and apparitions of flashing lights.",
      "poster_path": "\/gnQlEiSozUmCqx7kB9wICxKV1PW.jpg"
    },
    {
      "popularity": 0.6,
      "id": 612066,
      "video": true,
      "vote_count": 0,
      "vote_average": 0,
      "title": "Flashback: 50 Events That Shaped America",
      "release_date": "2013-11-05",
      "original_language": "en",
      "original_title": "Flashback: 50 Events That Shaped America",
      "genre_ids": [],
      "backdrop_path": null,
      "adult": false,
      "overview": "Take a journey back through time to see with your own eyes 50 of the most significant milestones to be caught on camera in the history of the United States. Using footage shot at the time of these incredible events, these unique mini-documentaries transport the viewer to a glorious - and sometimes tragic - past, where American icons can be seen in action, rather than as a faded image in a dusty history book. Witness for yourself America's greatest moments of joy, pain, heartache and triumph to be relived, respected and remembered for generations to come.",
      "poster_path": null
    },
    {
      "popularity": 0.6,
      "vote_count": 0,
      "video": false,
      "poster_path": "\/e0Da9ICSIAiTyOHbyE9hAp5l2uj.jpg",
      "id": 676830,
      "adult": false,
      "backdrop_path": "\/lgEgKlyERz9CtknuoPHJIywzZTH.jpg",
      "original_language": "en",
      "original_title": "Last Podcast on the Left: Live Flashback 2016",
      "genre_ids": [],
      "title": "Last Podcast on the Left: Live Flashback 2016",
      "vote_average": 0,
      "overview": "Here's a super old-school Last Podcast live show recorded way back in 2016. It's an old live show format, where we played stupid\/creepy\/weird vidz. The video quality is what it is, but we thought our Patreon folks would like to check it out. Hail yourselves!",
      "release_date": "2020-02-24"
    },
    {
      "popularity": 0.6,
      "id": 686037,
      "video": false,
      "vote_count": 0,
      "vote_average": 0,
      "title": "Last Podcast on the Left: Live Flashback 2015",
      "release_date": "2020-03-16",
      "original_language": "en",
      "original_title": "Last Podcast on the Left: Live Flashback 2015",
      "genre_ids": [],
      "backdrop_path": "\/roUfBDH7AFMUMiY98M43mulNX2w.jpg",
      "adult": false,
      "overview": "Here's another ancient Last Podcast live show recorded way back in 2015. Again, it's an old live show format, where we played stupid\/creepy\/weird vidz. The video quality is what it is, but we thought our Patreon folks would like to check it out. Hail yourselves!",
      "poster_path": "\/ArpYuwxVf9v9Ah58c8jBOBXa0DB.jpg"
    },
    {
      "popularity": 1.355,
      "id": 645817,
      "video": true,
      "vote_count": 0,
      "vote_average": 0,
      "title": "The Midnight Special Legendary Performances: Flashback to 1974",
      "release_date": "",
      "original_language": "en",
      "original_title": "The Midnight Special Legendary Performances: Flashback to 1974",
      "genre_ids": [],
      "backdrop_path": null,
      "adult": false,
      "overview": "",
      "poster_path": "\/5esaAvmYjThqZM4dmSwilii1YmQ.jpg"
    },
    {
      "popularity": 0.6,
      "id": 578932,
      "video": true,
      "vote_count": 0,
      "vote_average": 0,
      "title": "Flashback: 50 Events That Changed Britain",
      "release_date": "2012-11-20",
      "original_language": "en",
      "original_title": "Flashback: 50 Events That Changed Britain",
      "genre_ids": [],
      "backdrop_path": null,
      "adult": false,
      "overview": "This unique collection of wonderfully crafted 2-minute documentaries is designed to take you back in time to some of the most significant, and in some cases forgotten, events in recent British history. Rediscover the people and the events that shaped the nation: from the somber majesty of Queen Victoria's funeral in 1901 to the heroic journey by Captain Scott and his men to find the South Pole in 1912. See poignant film of British soldiers celebrating Christmas in the trenches in 1914 and relive Edward VIII's abdication in 1936.",
      "poster_path": null
    },
    {
      "popularity": 0.6,
      "vote_count": 1,
      "video": false,
      "poster_path": null,
      "id": 196663,
      "adult": false,
      "backdrop_path": null,
      "original_language": "it",
      "original_title": "John Surman - Flashpoint: NDR Jazz Workshop, April 1969",
      "genre_ids": [
        10402
      ],
      "title": "John Surman - Flashpoint: NDR Jazz Workshop, April 1969",
      "vote_average": 6,
      "overview": "",
      "release_date": "1969-04-15"
    },
    {
      "popularity": 0.886,
      "id": 592613,
      "video": false,
      "vote_count": 1,
      "vote_average": 5,
      "title": "Fulci Flashbacks: Reflections on Italy's Premiere Paura Protagonist",
      "release_date": "2011-03-14",
      "original_language": "en",
      "original_title": "Fulci Flashbacks: Reflections on Italy's Premiere Paura Protagonist",
      "genre_ids": [
        99
      ],
      "backdrop_path": null,
      "adult": false,
      "overview": "This documentary is featured on Arrow Video's 2011 DVD & Blu-ray releases for The Beyond (1981).",
      "poster_path": null
    },
    {
      "popularity": 7.356,
      "id": 93013,
      "video": false,
      "vote_count": 19,
      "vote_average": 6.6,
      "title": "The Princess and the Pilot",
      "release_date": "2011-10-01",
      "original_language": "ja",
      "original_title": "とある飛空士への追憶",
      "genre_ids": [
        12,
        16,
        18,
        10749
      ],
      "backdrop_path": "\/sFtxiwdexUgVp500Eoe05PBxY6p.jpg",
      "adult": false,
      "overview": "The war between the Levamme Empire and the Amatsukami Imperium has been raging for years. In the midst of this struggle, the prince of the Levamme Empire declares his love for Juana del Moral and vows to end the war in one year, as part of his marriage proposal. When the Amatsukami catch wind of this, they assault the del Moral residence, targeting Juana's life. As a last-ditch effort to bring the prince his bride, the San Maltilia Airforce employs a mercenary of mixed blood—a bestado—to fly Juana to the prince in secret.",
      "poster_path": "\/xIQa0yjLj2283OQZVy3ifVxT6DH.jpg"
    },
    {
      "popularity": 0.881,
      "vote_count": 0,
      "video": false,
      "poster_path": "\/hCrSFqV7Y52QDQfVOh8aOZfitcw.jpg",
      "id": 645815,
      "adult": false,
      "backdrop_path": null,
      "original_language": "es",
      "original_title": "The Midnight Special Legendary Performances: Flashback to 1973",
      "genre_ids": [],
      "title": "The Midnight Special Legendary Performances: Flashback to 1973",
      "vote_average": 0,
      "overview": "",
      "release_date": ""
    },
    {
      "popularity": 0.665,
      "vote_count": 0,
      "video": false,
      "poster_path": "\/o9luQtDR5HznJdbpsXF0fPoZCnH.jpg",
      "id": 485825,
      "adult": false,
      "backdrop_path": "\/zn0lZAX1Qlt87siK65mDeHA4EHG.jpg",
      "original_language": "zh",
      "original_title": "小霸王",
      "genre_ids": [
        28,
        80,
        18
      ],
      "title": "Super Kung Fu Kid",
      "vote_average": 0,
      "overview": "Ah Lung is a decent law abiding citizen armed with deadly martial arts skills. He soon discovers he has a brother who is a gangster, Man Ho. All martial hell breaks loose when he tries to meddle in the gangs affairs.",
      "release_date": "1974-07-05"
    }
  ]
}